SAMIDARE/.Xil/Vivado-1538562-e16fpga01/hw_ila_data_2/zip_work/waveform.vcd
$date
        2024-Aug-06 19:29:40
$end
$version
        Vivado v2022.2 (64-bit)
$end
$timescale
        1ps
$end
$scope module dut $end
$var reg 2 " top_block_i/SAMPA_I2C_wrapper/I2C_Controller_v1_0_0/inst/I2C_Controller_v1_0_M01_AXI_inst/mst_exec_state [1:0] $end
$var reg 1 $ top_block_i/SAMPA_I2C_wrapper/I2C_iobuf/IOBUF_IO_O1 $end
$var reg 1 % u_ila_1_IOBUF_IO_T1 $end
$var reg 1 & top_block_i/SAMPA_I2C_wrapper/I2C_iobuf/IOBUF_IO_O $end
$var reg 1 ' u_ila_1_IOBUF_IO_T $end
$var reg 4 ( u_ila_1_m01_axi_wdata [3:0] $end
$var reg 6 , top_block_i/SAMPA_I2C_wrapper/I2C_Controller_v1_0_0/m01_axi_wdata_1 [9:4] $end
$var reg 21 2 u_ila_1_m01_axi_wdata [30:10] $end
$var reg 1 G top_block_i/SAMPA_I2C_wrapper/I2C_Controller_v1_0_0/m01_axi_wdata $end
$var reg 9 H top_block_i/SAMPA_I2C_wrapper/I2C_Controller_v1_0_0/m01_axi_araddr [8:0] $end
$var reg 15 Q u_ila_1_m01_axi_araddr [23:9] $end
$var reg 9 ` top_block_i/SAMPA_I2C_wrapper/I2C_Controller_v1_0_0/m01_axi_rdata_1 [8:0] $end
$var reg 1 i top_block_i/SAMPA_I2C_wrapper/I2C_Controller_v1_0_0/m01_axi_rdata $end
$var reg 9 j top_block_i/SAMPA_I2C_wrapper/axi_iic_0/s_axi_rdata_1 [8:0] $end
$var reg 1 s top_block_i/SAMPA_I2C_wrapper/axi_iic_0/s_axi_rdata $end
$var reg 1 t top_block_i/SAMPA_I2C_wrapper/I2C_Controller_v1_0_0/inst/I2C_Controller_v1_0_M01_AXI_inst/init_txn_ff $end
$var reg 1 u top_block_i/SAMPA_I2C_wrapper/I2C_Controller_v1_0_0/inst/I2C_Controller_v1_0_M01_AXI_inst/last_read $end
$var reg 1 v top_block_i/SAMPA_I2C_wrapper/I2C_Controller_v1_0_0/inst/I2C_Controller_v1_0_M01_AXI_inst/last_write $end
$var reg 1 w u_ila_1_m01_axi_aresetn $end
$var reg 1 x top_block_i/SAMPA_I2C_wrapper/I2C_Controller_v1_0_0/inst/I2C_Controller_v1_0_M01_AXI_inst/read_done $end
$var reg 1 y top_block_i/SAMPA_I2C_wrapper/I2C_Controller_v1_0_0/inst/I2C_Controller_v1_0_M01_AXI_inst/reads_done $end
$var reg 1 z top_block_i/SAMPA_I2C_wrapper/I2C_Controller_v1_0_0/inst/I2C_Controller_v1_0_M01_AXI_inst/start_single_read0 $end
$var reg 1 { top_block_i/SAMPA_I2C_wrapper/I2C_Controller_v1_0_0/inst/I2C_Controller_v1_0_M01_AXI_inst/start_single_write0 $end
$var reg 1 | top_block_i/SAMPA_I2C_wrapper/I2C_Controller_v1_0_0/inst/I2C_Controller_v1_0_M01_AXI_inst/TXN_DONE $end
$var reg 1 } top_block_i/SAMPA_I2C_wrapper/I2C_Controller_v1_0_0/inst/I2C_Controller_v1_0_M01_AXI_inst/writes_done $end
$var reg 1 ~ _TRIGGER $end
$var reg 1 !" _WINDOW $end
$var reg 1 "" _GAP $end
$upscope $end
$enddefinitions $end
#0
$dumpvars
b0 "
0$
1%
0&
1'
b0 (
b0 ,
b0 2
0G
b1011 H
b0 Q
b0 `
0i
b0 j
0s
0t
1u
0v
1w
0x
1y
0z
1{
0|
0}
0~
1!"
0""
$end
#1
1t
#2
b10 "
0u
0y
1z
#3
0z
#8
1u
#9
0t
#10
1y
#11
b0 "
1x
1|
#12
0x
0|
#13
1t
#14
b10 "
0u
0y
1z
#15
0z
#20
1u
#21
0t
#22
1y
#23
b0 "
1x
1|
#24
0x
0|
#25
1t
#26
b10 "
0u
0y
1z
#27
0z
#32
1u
#33
0t
#34
1y
#35
b0 "
1x
1|
#36
0x
0|
#37
1t
#38
b10 "
0u
0y
1z
#39
0z
#44
1u
#45
0t
#46
1y
#47
b0 "
1x
1|
#48
0x
0|
#49
1t
#50
b10 "
0u
0y
1z
#51
0z
#56
1u
#57
0t
#58
1y
#59
b0 "
1x
1|
#60
0x
0|
#61
1t
#62
b10 "
0u
0y
1z
#63
0z
#68
1u
#69
0t
#70
1y
#71
b0 "
1x
1|
#72
0x
0|
#73
1t
#74
b10 "
0u
0y
1z
#75
0z
#80
1u
#81
0t
#82
1y
#83
b0 "
1x
1|
#84
0x
0|
#85
1t
#86
b10 "
0u
0y
1z
#87
0z
#92
1u
#93
0t
#94
1y
#95
b0 "
1x
1|
#96
0x
0|
#97
1t
#98
b10 "
0u
0y
1z
#99
0z
#104
1u
#105
0t
#106
1y
#107
b0 "
1x
1|
#108
0x
0|
#109
1t
#110
b10 "
0u
0y
1z
#111
0z
#116
1u
#117
0t
#118
1y
#119
b0 "
1x
1|
#120
0x
0|
#121
1t
#122
b10 "
0u
0y
1z
#123
0z
#128
1u
#129
0t
#130
1y
#131
b0 "
1x
1|
#132
0x
0|
#133
1t
#134
b10 "
0u
0y
1z
#135
0z
#140
1u
#141
0t
#142
1y
#143
b0 "
1x
1|
#144
0x
0|
#145
1t
#146
b10 "
0u
0y
1z
#147
0z
#152
1u
#153
0t
#154
1y
#155
b0 "
1x
1|
#156
0x
0|
#157
1t
#158
b10 "
0u
0y
1z
#159
0z
#164
1u
#165
0t
#166
1y
#167
b0 "
1x
1|
#168
0x
0|
#169
1t
#170
b10 "
0u
0y
1z
#171
0z
#176
1u
#177
0t
#178
1y
#179
b0 "
1x
1|
#180
0x
0|
#181
1t
#182
b10 "
0u
0y
1z
#183
0z
#188
1u
#189
0t
#190
1y
#191
b0 "
1x
1|
#192
0x
0|
#193
1t
#194
b10 "
0u
0y
1z
#195
0z
#200
1u
#201
0t
#202
1y
#203
b0 "
1x
1|
#204
0x
0|
#205
1t
#206
b10 "
0u
0y
1z
#207
0z
#212
1u
#213
0t
#214
1y
#215
b0 "
1x
1|
#216
0x
0|
#217
1t
#218
b10 "
0u
0y
1z
#219
0z
#224
1u
#225
0t
#226
1y
#227
b0 "
1x
1|
#228
0x
0|
#229
1t
#230
b10 "
0u
0y
1z
#231
0z
#236
1u
#237
0t
#238
1y
#239
b0 "
1x
1|
#240
0x
0|
#241
1t
#242
b10 "
0u
0y
1z
#243
0z
#248
1u
#249
0t
#250
1y
#251
b0 "
1x
1|
#252
0x
0|
#253
1t
#254
b10 "
0u
0y
1z
#255
0z
#260
1u
#261
0t
#262
1y
#263
b0 "
1x
1|
#264
0x
0|
#265
1t
#266
b10 "
0u
0y
1z
#267
0z
#272
1u
#273
0t
#274
1y
#275
b0 "
1x
1|
#276
0x
0|
#277
1t
#278
b10 "
0u
0y
1z
#279
0z
#284
1u
#285
0t
#286
1y
#287
b0 "
1x
1|
#288
0x
0|
#289
1t
#290
b10 "
0u
0y
1z
#291
0z
#296
1u
#297
0t
#298
1y
#299
b0 "
1x
1|
#300
0x
0|
#301
1t
#302
b10 "
0u
0y
1z
#303
0z
#308
1u
#309
0t
#310
1y
#311
b0 "
1x
1|
#312
0x
0|
#313
1t
#314
b10 "
0u
0y
1z
#315
0z
#320
1u
#321
0t
#322
1y
#323
b0 "
1x
1|
#324
0x
0|
#325
1t
#326
b10 "
0u
0y
1z
#327
0z
#332
1u
#333
0t
#334
1y
#335
b0 "
1x
1|
#336
0x
0|
#337
1t
#338
b10 "
0u
0y
1z
#339
0z
#344
1u
#345
0t
#346
1y
#347
b0 "
1x
1|
#348
0x
0|
#349
1t
#350
b10 "
0u
0y
1z
#351
0z
#356
1u
#357
0t
#358
1y
#359
b0 "
1x
1|
#360
0x
0|
#361
1t
#362
b10 "
0u
0y
1z
#363
0z
#368
1u
#369
0t
#370
1y
#371
b0 "
1x
1|
#372
0x
0|
#373
1t
#374
b10 "
0u
0y
1z
#375
0z
#380
1u
#381
0t
#382
1y
#383
b0 "
1x
1|
#384
0x
0|
#385
1t
#386
b10 "
0u
0y
1z
#387
0z
#392
1u
#393
0t
#394
1y
#395
b0 "
1x
1|
#396
0x
0|
#397
1t
#398
b10 "
0u
0y
1z
#399
0z
#404
1u
#405
0t
#406
1y
#407
b0 "
1x
1|
#408
0x
0|
#409
1t
#410
b10 "
0u
0y
1z
#411
0z
#416
1u
#417
0t
#418
1y
#419
b0 "
1x
1|
#420
0x
0|
#421
1t
#422
b10 "
0u
0y
1z
#423
0z
#428
1u
#429
0t
#430
1y
#431
b0 "
1x
1|
#432
0x
0|
#433
1t
#434
b10 "
0u
0y
1z
#435
0z
#440
1u
#441
0t
#442
1y
#443
b0 "
1x
1|
#444
0x
0|
#445
1t
#446
b10 "
0u
0y
1z
#447
0z
#452
1u
#453
0t
#454
1y
#455
b0 "
1x
1|
#456
0x
0|
#457
1t
#458
b10 "
0u
0y
1z
#459
0z
#464
1u
#465
0t
#466
1y
#467
b0 "
1x
1|
#468
0x
0|
#469
1t
#470
b10 "
0u
0y
1z
#471
0z
#476
1u
#477
0t
#478
1y
#479
b0 "
1x
1|
#480
0x
0|
#481
1t
#482
b10 "
0u
0y
1z
#483
0z
#488
1u
#489
0t
#490
1y
#491
b0 "
1x
1|
#492
0x
0|
#493
1t
#494
b10 "
0u
0y
1z
#495
0z
#500
1u
#501
0t
#502
1y
#503
b0 "
1x
1|
#504
0x
0|
#505
1t
#506
b10 "
0u
0y
1z
#507
0z
#512
1u
1~
#513
0t
#514
1y
#515
b0 "
1x
1|
#516
0x
0|
#517
1t
#518
b10 "
0u
0y
1z
#519
0z
#524
1u
#525
0t
#526
1y
#527
b0 "
1x
1|
#528
0x
0|
#529
1t
#530
b10 "
0u
0y
1z
#531
0z
#536
1u
#537
0t
#538
1y
#539
b0 "
1x
1|
#540
0x
0|
#541
1t
#542
b10 "
0u
0y
1z
#543
0z
#548
1u
#549
0t
#550
1y
#551
b0 "
1x
1|
#552
0x
0|
#553
1t
#554
b10 "
0u
0y
1z
#555
0z
#560
1u
#561
0t
#562
1y
#563
b0 "
1x
1|
#564
0x
0|
#565
1t
#566
b10 "
0u
0y
1z
#567
0z
#572
1u
#573
0t
#574
1y
#575
b0 "
1x
1|
#576
0x
0|
#577
1t
#578
b10 "
0u
0y
1z
#579
0z
#584
1u
#585
0t
#586
1y
#587
b0 "
1x
1|
#588
0x
0|
#589
1t
#590
b10 "
0u
0y
1z
#591
0z
#596
1u
#597
0t
#598
1y
#599
b0 "
1x
1|
#600
0x
0|
#601
1t
#602
b10 "
0u
0y
1z
#603
0z
#608
1u
#609
0t
#610
1y
#611
b0 "
1x
1|
#612
0x
0|
#613
1t
#614
b10 "
0u
0y
1z
#615
0z
#620
1u
#621
0t
#622
1y
#623
b0 "
1x
1|
#624
0x
0|
#625
1t
#626
b10 "
0u
0y
1z
#627
0z
#632
1u
#633
0t
#634
1y
#635
b0 "
1x
1|
#636
0x
0|
#637
1t
#638
b10 "
0u
0y
1z
#639
0z
#644
1u
#645
0t
#646
1y
#647
b0 "
1x
1|
#648
0x
0|
#649
1t
#650
b10 "
0u
0y
1z
#651
0z
#656
1u
#657
0t
#658
1y
#659
b0 "
1x
1|
#660
0x
0|
#661
1t
#662
b10 "
0u
0y
1z
#663
0z
#668
1u
#669
0t
#670
1y
#671
b0 "
1x
1|
#672
0x
0|
#673
1t
#674
b10 "
0u
0y
1z
#675
0z
#680
1u
#681
0t
#682
1y
#683
b0 "
1x
1|
#684
0x
0|
#685
1t
#686
b10 "
0u
0y
1z
#687
0z
#692
1u
#693
0t
#694
1y
#695
b0 "
1x
1|
#696
0x
0|
#697
1t
#698
b10 "
0u
0y
1z
#699
0z
#704
1u
#705
0t
#706
1y
#707
b0 "
1x
1|
#708
0x
0|
#709
1t
#710
b10 "
0u
0y
1z
#711
0z
#716
1u
#717
0t
#718
1y
#719
b0 "
1x
1|
#720
0x
0|
#721
1t
#722
b10 "
0u
0y
1z
#723
0z
#728
1u
#729
0t
#730
1y
#731
b0 "
1x
1|
#732
0x
0|
#733
1t
#734
b10 "
0u
0y
1z
#735
0z
#740
1u
#741
0t
#742
1y
#743
b0 "
1x
1|
#744
0x
0|
#745
1t
#746
b10 "
0u
0y
1z
#747
0z
#752
1u
#753
0t
#754
1y
#755
b0 "
1x
1|
#756
0x
0|
#757
1t
#758
b10 "
0u
0y
1z
#759
0z
#764
1u
#765
0t
#766
1y
#767
b0 "
1x
1|
#768
0x
0|
#769
1t
#770
b10 "
0u
0y
1z
#771
0z
#776
1u
#777
0t
#778
1y
#779
b0 "
1x
1|
#780
0x
0|
#781
1t
#782
b10 "
0u
0y
1z
#783
0z
#788
1u
#789
0t
#790
1y
#791
b0 "
1x
1|
#792
0x
0|
#793
1t
#794
b10 "
0u
0y
1z
#795
0z
#800
1u
#801
0t
#802
1y
#803
b0 "
1x
1|
#804
0x
0|
#805
1t
#806
b10 "
0u
0y
1z
#807
0z
#812
1u
#813
0t
#814
1y
#815
b0 "
1x
1|
#816
0x
0|
#817
1t
#818
b10 "
0u
0y
1z
#819
0z
#824
1u
#825
0t
#826
1y
#827
b0 "
1x
1|
#828
0x
0|
#829
1t
#830
b10 "
0u
0y
1z
#831
0z
#836
1u
#837
0t
#838
1y
#839
b0 "
1x
1|
#840
0x
0|
#841
1t
#842
b10 "
0u
0y
1z
#843
0z
#848
1u
#849
0t
#850
1y
#851
b0 "
1x
1|
#852
0x
0|
#853
1t
#854
b10 "
0u
0y
1z
#855
0z
#860
1u
#861
0t
#862
1y
#863
b0 "
1x
1|
#864
0x
0|
#865
1t
#866
b10 "
0u
0y
1z
#867
0z
#872
1u
#873
0t
#874
1y
#875
b0 "
1x
1|
#876
0x
0|
#877
1t
#878
b10 "
0u
0y
1z
#879
0z
#884
1u
#885
0t
#886
1y
#887
b0 "
1x
1|
#888
0x
0|
#889
1t
#890
b10 "
0u
0y
1z
#891
0z
#896
1u
#897
0t
#898
1y
#899
b0 "
1x
1|
#900
0x
0|
#901
1t
#902
b10 "
0u
0y
1z
#903
0z
#908
1u
#909
0t
#910
1y
#911
b0 "
1x
1|
#912
0x
0|
#913
1t
#914
b10 "
0u
0y
1z
#915
0z
#920
1u
#921
0t
#922
1y
#923
b0 "
1x
1|
#924
0x
0|
#925
1t
#926
b10 "
0u
0y
1z
#927
0z
#932
1u
#933
0t
#934
1y
#935
b0 "
1x
1|
#936
0x
0|
#937
1t
#938
b10 "
0u
0y
1z
#939
0z
#944
1u
#945
0t
#946
1y
#947
b0 "
1x
1|
#948
0x
0|
#949
1t
#950
b10 "
0u
0y
1z
#951
0z
#956
1u
#957
0t
#958
1y
#959
b0 "
1x
1|
#960
0x
0|
#961
1t
#962
b10 "
0u
0y
1z
#963
0z
#968
1u
#969
0t
#970
1y
#971
b0 "
1x
1|
#972
0x
0|
#973
1t
#974
b10 "
0u
0y
1z
#975
0z
#980
1u
#981
0t
#982
1y
#983
b0 "
1x
1|
#984
0x
0|
#985
1t
#986
b10 "
0u
0y
1z
#987
0z
#992
1u
#993
0t
#994
1y
#995
b0 "
1x
1|
#996
0x
0|
#997
1t
#998
b10 "
0u
0y
1z
#999
0z
#1004
1u
#1005
0t
#1006
1y
#1007
b0 "
1x
1|
#1008
0x
0|
#1009
1t
#1010
b10 "
0u
0y
1z
#1011
0z
#1016
1u
#1017
0t
#1018
1y
#1019
b0 "
1x
1|
#1020
0x
0|
#1021
1t
#1022
b10 "
0u
0y
1z
#1023
0z
