SAMIDARE/.Xil/Vivado-1371282-e16fpga01/hw_ila_data_1/zip_work/waveform.vcd
$date
        2024-Aug-06 10:53:07
$end
$version
        Vivado v2022.2 (64-bit)
$end
$timescale
        1ps
$end
$scope module dut $end
$var reg 28 " top_block_i/SAMPA_PON_v1_0_0/inst/cnt_reg [27:0] $end
$var reg 32 > top_block_i/SAMPA_PON_v1_0_0/inst/m00_axi_rdata [31:0] $end
$var reg 1 ^ u_ila_0_m00_axi_rdata $end
$var reg 32 _ top_block_i/SAMPA_PON_v1_0_0/inst/m00_axi_araddr [31:0] $end
$var reg 3 !" top_block_i/SAMPA_PON_v1_0_0/inst/SAMPA_PON_v1_0_M00_AXI_inst/p_1_in [2:0] $end
$var reg 32 $" u_ila_0_m00_axi_rdata [31:0] $end
$var reg 32 D" u_ila_0_sampa_rdata [31:0] $end
$var reg 3 d" u_ila_0_state_sw [2:0] $end
$var reg 32 g" u_ila_0_i2c_waddr_o [31:0] $end
$var reg 32 )# top_block_i/fakernet/reg_switch_0/regacc_data_rd_o [31:0] $end
$var reg 32 I# u_ila_0_regacc_data_rd_i [31:0] $end
$var reg 32 i# top_block_i/fakernet/reg_switch_0/regacc_data_wr_i [31:0] $end
$var reg 25 +$ top_block_i/fakernet/reg_switch_0/regacc_addr_i [24:0] $end
$var reg 32 D$ top_block_i/fakernet/reg_switch_0/regacc_data_wr_o [31:0] $end
$var reg 14 d$ top_block_i/fakernet/reg_switch_0/regacc_addr_o [13:0] $end
$var reg 11 r$ u_ila_0_regacc_addr_o [24:14] $end
$var reg 32 }$ top_block_i/led_module/LED_REG_READ_SEPARAT_1/inst/LED_REG_READ_SEPARATE_v1_0_M00_AXI_inst/axi_araddr [31:0] $end
$var reg 29 ?% u_ila_0_axi_araddr [28:0] $end
$var reg 1 \% \u_ila_0_m00_axi_araddr[29]_1 $end
$var reg 1 ]% \u_ila_0_m00_axi_araddr[30]_1 $end
$var reg 1 ^% \u_ila_0_m00_axi_araddr[31]_1 $end
$var reg 32 _% top_block_i/led_module/LED_REG_READ_SEPARAT_0/inst/LED_REG_READ_SEPARATE_v1_0_M00_AXI_inst/axi_araddr [31:0] $end
$var reg 1 !& \u_ila_0_axi_araddr[0]_1 $end
$var reg 1 "& \u_ila_0_axi_araddr[1]_1 $end
$var reg 1 #& \u_ila_0_axi_araddr[2]_1 $end
$var reg 1 $& \u_ila_0_axi_araddr[3]_1 $end
$var reg 1 %& \u_ila_0_axi_araddr[4]_1 $end
$var reg 1 && \u_ila_0_axi_araddr[5]_1 $end
$var reg 1 '& \u_ila_0_axi_araddr[6]_1 $end
$var reg 1 (& \u_ila_0_axi_araddr[7]_1 $end
$var reg 1 )& \u_ila_0_axi_araddr[8]_1 $end
$var reg 1 *& \u_ila_0_axi_araddr[9]_1 $end
$var reg 1 +& \u_ila_0_axi_araddr[10]_1 $end
$var reg 1 ,& \u_ila_0_axi_araddr[11]_1 $end
$var reg 1 -& \u_ila_0_axi_araddr[12]_1 $end
$var reg 1 .& \u_ila_0_axi_araddr[13]_1 $end
$var reg 1 /& \u_ila_0_axi_araddr[14]_1 $end
$var reg 1 0& \u_ila_0_axi_araddr[15]_1 $end
$var reg 1 1& \u_ila_0_axi_araddr[16]_1 $end
$var reg 1 2& \u_ila_0_axi_araddr[17]_1 $end
$var reg 1 3& \u_ila_0_axi_araddr[18]_1 $end
$var reg 1 4& \u_ila_0_axi_araddr[19]_1 $end
$var reg 1 5& \u_ila_0_axi_araddr[20]_1 $end
$var reg 1 6& \u_ila_0_axi_araddr[21]_1 $end
$var reg 1 7& \u_ila_0_axi_araddr[22]_1 $end
$var reg 1 8& \u_ila_0_axi_araddr[23]_1 $end
$var reg 1 9& \u_ila_0_axi_araddr[24]_1 $end
$var reg 1 :& \u_ila_0_axi_araddr[25]_1 $end
$var reg 1 ;& \u_ila_0_axi_araddr[26]_1 $end
$var reg 1 <& \u_ila_0_axi_araddr[27]_1 $end
$var reg 1 =& \u_ila_0_axi_araddr[28]_1 $end
$var reg 1 >& \u_ila_0_m00_axi_araddr[29]_2 $end
$var reg 1 ?& \u_ila_0_m00_axi_araddr[30]_2 $end
$var reg 1 @& \u_ila_0_m00_axi_araddr[31]_2 $end
$var reg 1 A& u_ila_0_axi_aresetn $end
$var reg 1 B& top_block_i/fakernet/reg_switch_0/inst/i2c_addr $end
$var reg 1 C& top_block_i/SAMPA_PON_v1_0_0/m00_axi_arready $end
$var reg 1 D& u_ila_0_m00_axi_arvalid $end
$var reg 1 E& top_block_i/SAMPA_PON_v1_0_0/m00_axi_bready $end
$var reg 1 F& top_block_i/SAMPA_PON_v1_0_0/m00_axi_bvalid $end
$var reg 1 G& top_block_i/SAMPA_PON_v1_0_0/m00_axi_rready $end
$var reg 1 H& top_block_i/SAMPA_PON_v1_0_0/m00_axi_rvalid $end
$var reg 1 I& u_ila_0_m00_axi_txn_done $end
$var reg 1 J& LED_OBUF_1 $end
$var reg 1 K& u_ila_0_regacc_done_i $end
$var reg 1 L& u_ila_0_regacc_done_o $end
$var reg 1 M& top_block_i/fakernet/reg_switch_0/regacc_read_i $end
$var reg 1 N& top_block_i/fakernet/reg_switch_0/regacc_read_o $end
$var reg 1 O& top_block_i/fakernet/reg_switch_0/regacc_write_i $end
$var reg 1 P& u_ila_0_regacc_write_o $end
$var reg 1 Q& LED_OBUF $end
$var reg 1 R& top_block_i/SAMPA_PON_v1_0_0/inst/sampa_power_on $end
$var reg 1 S& top_block_i/SAMPA_PON_v1_0_0/inst/txn $end
$var reg 1 T& _TRIGGER $end
$var reg 1 U& _WINDOW $end
$var reg 1 V& _GAP $end
$upscope $end
$enddefinitions $end
#0
$dumpvars
b101111010100001000101100001 "
b11011110110000001101111000011100 >
0^
b11000000000000001000000000000000 _
b10 !"
b11011110110000001101111000011100 $"
b0 D"
b10 d"
b0 g"
b1 )#
b1 I#
b0 i#
b100 +$
b0 D$
b1 d$
b0 r$
b1111000000001100 }$
b1111000000001100 ?%
0\%
1]%
1^%
b1111000000001000 _%
0!&
0"&
0#&
1$&
0%&
0&&
0'&
0(&
0)&
0*&
0+&
0,&
1-&
1.&
1/&
10&
01&
02&
03&
04&
05&
06&
07&
08&
09&
0:&
0;&
0<&
0=&
0>&
1?&
1@&
1A&
0B&
0C&
0D&
0E&
0F&
0G&
0H&
1I&
1J&
0K&
0L&
0M&
0N&
0O&
0P&
1Q&
1R&
0S&
0T&
1U&
0V&
$end
#1
b101111010100001000101100010 "
#2
b101111010100001000101100011 "
#3
b101111010100001000101100100 "
#4
b101111010100001000101100101 "
#5
b101111010100001000101100110 "
#6
b101111010100001000101100111 "
#7
b101111010100001000101101000 "
#8
b101111010100001000101101001 "
#9
b101111010100001000101101010 "
#10
b101111010100001000101101011 "
#11
b101111010100001000101101100 "
#12
b101111010100001000101101101 "
#13
b101111010100001000101101110 "
#14
b101111010100001000101101111 "
#15
b101111010100001000101110000 "
#16
b101111010100001000101110001 "
#17
b101111010100001000101110010 "
#18
b101111010100001000101110011 "
#19
b101111010100001000101110100 "
#20
b101111010100001000101110101 "
#21
b101111010100001000101110110 "
#22
b101111010100001000101110111 "
#23
b101111010100001000101111000 "
#24
b101111010100001000101111001 "
#25
b101111010100001000101111010 "
#26
b101111010100001000101111011 "
#27
b101111010100001000101111100 "
#28
b101111010100001000101111101 "
#29
b101111010100001000101111110 "
#30
b101111010100001000101111111 "
#31
b101111010100001000110000000 "
#32
b101111010100001000110000001 "
#33
b101111010100001000110000010 "
#34
b101111010100001000110000011 "
#35
b101111010100001000110000100 "
#36
b101111010100001000110000101 "
#37
b101111010100001000110000110 "
#38
b101111010100001000110000111 "
#39
b101111010100001000110001000 "
#40
b101111010100001000110001001 "
#41
b101111010100001000110001010 "
#42
b101111010100001000110001011 "
#43
b101111010100001000110001100 "
#44
b101111010100001000110001101 "
#45
b101111010100001000110001110 "
#46
b101111010100001000110001111 "
#47
b101111010100001000110010000 "
#48
b101111010100001000110010001 "
#49
b101111010100001000110010010 "
#50
b101111010100001000110010011 "
#51
b101111010100001000110010100 "
#52
b101111010100001000110010101 "
#53
b101111010100001000110010110 "
#54
b101111010100001000110010111 "
#55
b101111010100001000110011000 "
#56
b101111010100001000110011001 "
#57
b101111010100001000110011010 "
#58
b101111010100001000110011011 "
#59
b101111010100001000110011100 "
#60
b101111010100001000110011101 "
#61
b101111010100001000110011110 "
#62
b101111010100001000110011111 "
#63
b101111010100001000110100000 "
#64
b101111010100001000110100001 "
#65
b101111010100001000110100010 "
#66
b101111010100001000110100011 "
#67
b101111010100001000110100100 "
#68
b101111010100001000110100101 "
#69
b101111010100001000110100110 "
#70
b101111010100001000110100111 "
#71
b101111010100001000110101000 "
#72
b101111010100001000110101001 "
#73
b101111010100001000110101010 "
#74
b101111010100001000110101011 "
#75
b101111010100001000110101100 "
#76
b101111010100001000110101101 "
#77
b101111010100001000110101110 "
#78
b101111010100001000110101111 "
#79
b101111010100001000110110000 "
#80
b101111010100001000110110001 "
#81
b101111010100001000110110010 "
#82
b101111010100001000110110011 "
#83
b101111010100001000110110100 "
#84
b101111010100001000110110101 "
#85
b101111010100001000110110110 "
#86
b101111010100001000110110111 "
#87
b101111010100001000110111000 "
#88
b101111010100001000110111001 "
#89
b101111010100001000110111010 "
#90
b101111010100001000110111011 "
#91
b101111010100001000110111100 "
#92
b101111010100001000110111101 "
#93
b101111010100001000110111110 "
#94
b101111010100001000110111111 "
#95
b101111010100001000111000000 "
#96
b101111010100001000111000001 "
#97
b101111010100001000111000010 "
#98
b101111010100001000111000011 "
#99
b101111010100001000111000100 "
#100
b101111010100001000111000101 "
#101
b101111010100001000111000110 "
#102
b101111010100001000111000111 "
#103
b101111010100001000111001000 "
#104
b101111010100001000111001001 "
#105
b101111010100001000111001010 "
#106
b101111010100001000111001011 "
#107
b101111010100001000111001100 "
#108
b101111010100001000111001101 "
#109
b101111010100001000111001110 "
#110
b101111010100001000111001111 "
#111
b101111010100001000111010000 "
#112
b101111010100001000111010001 "
#113
b101111010100001000111010010 "
#114
b101111010100001000111010011 "
#115
b101111010100001000111010100 "
#116
b101111010100001000111010101 "
#117
b101111010100001000111010110 "
#118
b101111010100001000111010111 "
#119
b101111010100001000111011000 "
#120
b101111010100001000111011001 "
#121
b101111010100001000111011010 "
#122
b101111010100001000111011011 "
#123
b101111010100001000111011100 "
#124
b101111010100001000111011101 "
#125
b101111010100001000111011110 "
#126
b101111010100001000111011111 "
#127
b101111010100001000111100000 "
#128
b101111010100001000111100001 "
#129
b101111010100001000111100010 "
#130
b101111010100001000111100011 "
#131
b101111010100001000111100100 "
#132
b101111010100001000111100101 "
#133
b101111010100001000111100110 "
#134
b101111010100001000111100111 "
#135
b101111010100001000111101000 "
#136
b101111010100001000111101001 "
#137
b101111010100001000111101010 "
#138
b101111010100001000111101011 "
#139
b101111010100001000111101100 "
#140
b101111010100001000111101101 "
#141
b101111010100001000111101110 "
#142
b101111010100001000111101111 "
#143
b101111010100001000111110000 "
#144
b101111010100001000111110001 "
#145
b101111010100001000111110010 "
#146
b101111010100001000111110011 "
#147
b101111010100001000111110100 "
#148
b101111010100001000111110101 "
#149
b101111010100001000111110110 "
#150
b101111010100001000111110111 "
#151
b101111010100001000111111000 "
#152
b101111010100001000111111001 "
#153
b101111010100001000111111010 "
#154
b101111010100001000111111011 "
#155
b101111010100001000111111100 "
#156
b101111010100001000111111101 "
#157
b101111010100001000111111110 "
#158
b101111010100001000111111111 "
#159
b101111010100001001000000000 "
#160
b101111010100001001000000001 "
#161
b101111010100001001000000010 "
#162
b101111010100001001000000011 "
#163
b101111010100001001000000100 "
#164
b101111010100001001000000101 "
#165
b101111010100001001000000110 "
#166
b101111010100001001000000111 "
#167
b101111010100001001000001000 "
#168
b101111010100001001000001001 "
#169
b101111010100001001000001010 "
#170
b101111010100001001000001011 "
#171
b101111010100001001000001100 "
#172
b101111010100001001000001101 "
#173
b101111010100001001000001110 "
#174
b101111010100001001000001111 "
#175
b101111010100001001000010000 "
#176
b101111010100001001000010001 "
#177
b101111010100001001000010010 "
#178
b101111010100001001000010011 "
#179
b101111010100001001000010100 "
#180
b101111010100001001000010101 "
#181
b101111010100001001000010110 "
#182
b101111010100001001000010111 "
#183
b101111010100001001000011000 "
#184
b101111010100001001000011001 "
#185
b101111010100001001000011010 "
#186
b101111010100001001000011011 "
#187
b101111010100001001000011100 "
#188
b101111010100001001000011101 "
#189
b101111010100001001000011110 "
#190
b101111010100001001000011111 "
#191
b101111010100001001000100000 "
#192
b101111010100001001000100001 "
#193
b101111010100001001000100010 "
#194
b101111010100001001000100011 "
#195
b101111010100001001000100100 "
#196
b101111010100001001000100101 "
#197
b101111010100001001000100110 "
#198
b101111010100001001000100111 "
#199
b101111010100001001000101000 "
#200
b101111010100001001000101001 "
#201
b101111010100001001000101010 "
#202
b101111010100001001000101011 "
#203
b101111010100001001000101100 "
#204
b101111010100001001000101101 "
#205
b101111010100001001000101110 "
#206
b101111010100001001000101111 "
#207
b101111010100001001000110000 "
#208
b101111010100001001000110001 "
#209
b101111010100001001000110010 "
#210
b101111010100001001000110011 "
#211
b101111010100001001000110100 "
#212
b101111010100001001000110101 "
#213
b101111010100001001000110110 "
#214
b101111010100001001000110111 "
#215
b101111010100001001000111000 "
#216
b101111010100001001000111001 "
#217
b101111010100001001000111010 "
#218
b101111010100001001000111011 "
#219
b101111010100001001000111100 "
#220
b101111010100001001000111101 "
#221
b101111010100001001000111110 "
#222
b101111010100001001000111111 "
#223
b101111010100001001001000000 "
#224
b101111010100001001001000001 "
#225
b101111010100001001001000010 "
#226
b101111010100001001001000011 "
#227
b101111010100001001001000100 "
#228
b101111010100001001001000101 "
#229
b101111010100001001001000110 "
#230
b101111010100001001001000111 "
#231
b101111010100001001001001000 "
#232
b101111010100001001001001001 "
#233
b101111010100001001001001010 "
#234
b101111010100001001001001011 "
#235
b101111010100001001001001100 "
#236
b101111010100001001001001101 "
#237
b101111010100001001001001110 "
#238
b101111010100001001001001111 "
#239
b101111010100001001001010000 "
#240
b101111010100001001001010001 "
#241
b101111010100001001001010010 "
#242
b101111010100001001001010011 "
#243
b101111010100001001001010100 "
#244
b101111010100001001001010101 "
#245
b101111010100001001001010110 "
#246
b101111010100001001001010111 "
#247
b101111010100001001001011000 "
#248
b101111010100001001001011001 "
#249
b101111010100001001001011010 "
#250
b101111010100001001001011011 "
#251
b101111010100001001001011100 "
#252
b101111010100001001001011101 "
#253
b101111010100001001001011110 "
#254
b101111010100001001001011111 "
#255
b101111010100001001001100000 "
#256
b101111010100001001001100001 "
#257
b101111010100001001001100010 "
#258
b101111010100001001001100011 "
#259
b101111010100001001001100100 "
#260
b101111010100001001001100101 "
#261
b101111010100001001001100110 "
#262
b101111010100001001001100111 "
#263
b101111010100001001001101000 "
#264
b101111010100001001001101001 "
#265
b101111010100001001001101010 "
#266
b101111010100001001001101011 "
#267
b101111010100001001001101100 "
#268
b101111010100001001001101101 "
#269
b101111010100001001001101110 "
#270
b101111010100001001001101111 "
#271
b101111010100001001001110000 "
#272
b101111010100001001001110001 "
#273
b101111010100001001001110010 "
#274
b101111010100001001001110011 "
#275
b101111010100001001001110100 "
#276
b101111010100001001001110101 "
#277
b101111010100001001001110110 "
#278
b101111010100001001001110111 "
#279
b101111010100001001001111000 "
#280
b101111010100001001001111001 "
#281
b101111010100001001001111010 "
#282
b101111010100001001001111011 "
#283
b101111010100001001001111100 "
#284
b101111010100001001001111101 "
#285
b101111010100001001001111110 "
#286
b101111010100001001001111111 "
#287
b101111010100001001010000000 "
#288
b101111010100001001010000001 "
#289
b101111010100001001010000010 "
#290
b101111010100001001010000011 "
#291
b101111010100001001010000100 "
#292
b101111010100001001010000101 "
#293
b101111010100001001010000110 "
#294
b101111010100001001010000111 "
#295
b101111010100001001010001000 "
#296
b101111010100001001010001001 "
#297
b101111010100001001010001010 "
#298
b101111010100001001010001011 "
#299
b101111010100001001010001100 "
#300
b101111010100001001010001101 "
#301
b101111010100001001010001110 "
#302
b101111010100001001010001111 "
#303
b101111010100001001010010000 "
#304
b101111010100001001010010001 "
#305
b101111010100001001010010010 "
#306
b101111010100001001010010011 "
#307
b101111010100001001010010100 "
#308
b101111010100001001010010101 "
#309
b101111010100001001010010110 "
#310
b101111010100001001010010111 "
#311
b101111010100001001010011000 "
#312
b101111010100001001010011001 "
#313
b101111010100001001010011010 "
#314
b101111010100001001010011011 "
#315
b101111010100001001010011100 "
#316
b101111010100001001010011101 "
#317
b101111010100001001010011110 "
#318
b101111010100001001010011111 "
#319
b101111010100001001010100000 "
#320
b101111010100001001010100001 "
#321
b101111010100001001010100010 "
#322
b101111010100001001010100011 "
#323
b101111010100001001010100100 "
#324
b101111010100001001010100101 "
#325
b101111010100001001010100110 "
#326
b101111010100001001010100111 "
#327
b101111010100001001010101000 "
#328
b101111010100001001010101001 "
#329
b101111010100001001010101010 "
#330
b101111010100001001010101011 "
#331
b101111010100001001010101100 "
#332
b101111010100001001010101101 "
#333
b101111010100001001010101110 "
#334
b101111010100001001010101111 "
#335
b101111010100001001010110000 "
#336
b101111010100001001010110001 "
#337
b101111010100001001010110010 "
#338
b101111010100001001010110011 "
#339
b101111010100001001010110100 "
#340
b101111010100001001010110101 "
#341
b101111010100001001010110110 "
#342
b101111010100001001010110111 "
#343
b101111010100001001010111000 "
#344
b101111010100001001010111001 "
#345
b101111010100001001010111010 "
#346
b101111010100001001010111011 "
#347
b101111010100001001010111100 "
#348
b101111010100001001010111101 "
#349
b101111010100001001010111110 "
#350
b101111010100001001010111111 "
#351
b101111010100001001011000000 "
#352
b101111010100001001011000001 "
#353
b101111010100001001011000010 "
#354
b101111010100001001011000011 "
#355
b101111010100001001011000100 "
#356
b101111010100001001011000101 "
#357
b101111010100001001011000110 "
#358
b101111010100001001011000111 "
#359
b101111010100001001011001000 "
#360
b101111010100001001011001001 "
#361
b101111010100001001011001010 "
#362
b101111010100001001011001011 "
#363
b101111010100001001011001100 "
#364
b101111010100001001011001101 "
#365
b101111010100001001011001110 "
#366
b101111010100001001011001111 "
#367
b101111010100001001011010000 "
#368
b101111010100001001011010001 "
#369
b101111010100001001011010010 "
#370
b101111010100001001011010011 "
#371
b101111010100001001011010100 "
#372
b101111010100001001011010101 "
#373
b101111010100001001011010110 "
#374
b101111010100001001011010111 "
#375
b101111010100001001011011000 "
#376
b101111010100001001011011001 "
#377
b101111010100001001011011010 "
#378
b101111010100001001011011011 "
#379
b101111010100001001011011100 "
#380
b101111010100001001011011101 "
#381
b101111010100001001011011110 "
#382
b101111010100001001011011111 "
#383
b101111010100001001011100000 "
#384
b101111010100001001011100001 "
#385
b101111010100001001011100010 "
#386
b101111010100001001011100011 "
#387
b101111010100001001011100100 "
#388
b101111010100001001011100101 "
#389
b101111010100001001011100110 "
#390
b101111010100001001011100111 "
#391
b101111010100001001011101000 "
#392
b101111010100001001011101001 "
#393
b101111010100001001011101010 "
#394
b101111010100001001011101011 "
#395
b101111010100001001011101100 "
#396
b101111010100001001011101101 "
#397
b101111010100001001011101110 "
#398
b101111010100001001011101111 "
#399
b101111010100001001011110000 "
#400
b101111010100001001011110001 "
#401
b101111010100001001011110010 "
#402
b101111010100001001011110011 "
#403
b101111010100001001011110100 "
#404
b101111010100001001011110101 "
#405
b101111010100001001011110110 "
#406
b101111010100001001011110111 "
#407
b101111010100001001011111000 "
#408
b101111010100001001011111001 "
#409
b101111010100001001011111010 "
#410
b101111010100001001011111011 "
#411
b101111010100001001011111100 "
#412
b101111010100001001011111101 "
#413
b101111010100001001011111110 "
#414
b101111010100001001011111111 "
#415
b101111010100001001100000000 "
#416
b101111010100001001100000001 "
#417
b101111010100001001100000010 "
#418
b101111010100001001100000011 "
#419
b101111010100001001100000100 "
#420
b101111010100001001100000101 "
#421
b101111010100001001100000110 "
#422
b101111010100001001100000111 "
#423
b101111010100001001100001000 "
#424
b101111010100001001100001001 "
#425
b101111010100001001100001010 "
#426
b101111010100001001100001011 "
#427
b101111010100001001100001100 "
#428
b101111010100001001100001101 "
#429
b101111010100001001100001110 "
#430
b101111010100001001100001111 "
#431
b101111010100001001100010000 "
#432
b101111010100001001100010001 "
#433
b101111010100001001100010010 "
#434
b101111010100001001100010011 "
#435
b101111010100001001100010100 "
#436
b101111010100001001100010101 "
#437
b101111010100001001100010110 "
#438
b101111010100001001100010111 "
#439
b101111010100001001100011000 "
#440
b101111010100001001100011001 "
#441
b101111010100001001100011010 "
#442
b101111010100001001100011011 "
#443
b101111010100001001100011100 "
#444
b101111010100001001100011101 "
#445
b101111010100001001100011110 "
#446
b101111010100001001100011111 "
#447
b101111010100001001100100000 "
#448
b101111010100001001100100001 "
#449
b101111010100001001100100010 "
#450
b101111010100001001100100011 "
#451
b101111010100001001100100100 "
#452
b101111010100001001100100101 "
#453
b101111010100001001100100110 "
#454
b101111010100001001100100111 "
#455
b101111010100001001100101000 "
#456
b101111010100001001100101001 "
#457
b101111010100001001100101010 "
#458
b101111010100001001100101011 "
#459
b101111010100001001100101100 "
#460
b101111010100001001100101101 "
#461
b101111010100001001100101110 "
#462
b101111010100001001100101111 "
#463
b101111010100001001100110000 "
#464
b101111010100001001100110001 "
#465
b101111010100001001100110010 "
#466
b101111010100001001100110011 "
#467
b101111010100001001100110100 "
#468
b101111010100001001100110101 "
#469
b101111010100001001100110110 "
#470
b101111010100001001100110111 "
#471
b101111010100001001100111000 "
#472
b101111010100001001100111001 "
#473
b101111010100001001100111010 "
#474
b101111010100001001100111011 "
#475
b101111010100001001100111100 "
#476
b101111010100001001100111101 "
#477
b101111010100001001100111110 "
#478
b101111010100001001100111111 "
#479
b101111010100001001101000000 "
#480
b101111010100001001101000001 "
#481
b101111010100001001101000010 "
#482
b101111010100001001101000011 "
#483
b101111010100001001101000100 "
#484
b101111010100001001101000101 "
#485
b101111010100001001101000110 "
#486
b101111010100001001101000111 "
#487
b101111010100001001101001000 "
#488
b101111010100001001101001001 "
#489
b101111010100001001101001010 "
#490
b101111010100001001101001011 "
#491
b101111010100001001101001100 "
#492
b101111010100001001101001101 "
#493
b101111010100001001101001110 "
#494
b101111010100001001101001111 "
#495
b101111010100001001101010000 "
#496
b101111010100001001101010001 "
#497
b101111010100001001101010010 "
#498
b101111010100001001101010011 "
#499
b101111010100001001101010100 "
#500
b101111010100001001101010101 "
#501
b101111010100001001101010110 "
#502
b101111010100001001101010111 "
#503
b101111010100001001101011000 "
#504
b101111010100001001101011001 "
#505
b101111010100001001101011010 "
#506
b101111010100001001101011011 "
#507
b101111010100001001101011100 "
#508
b101111010100001001101011101 "
#509
b101111010100001001101011110 "
#510
b101111010100001001101011111 "
b0 +$
#511
b101111010100001001101100000 "
#512
b101111010100001001101100001 "
1O&
1T&
#513
b101111010100001001101100010 "
0O&
#514
b101111010100001001101100011 "
#515
b101111010100001001101100100 "
#516
b101111010100001001101100101 "
#517
b101111010100001001101100110 "
#518
b101111010100001001101100111 "
#519
b101111010100001001101101000 "
#520
b101111010100001001101101001 "
#521
b101111010100001001101101010 "
#522
b101111010100001001101101011 "
#523
b101111010100001001101101100 "
#524
b101111010100001001101101101 "
#525
b101111010100001001101101110 "
#526
b101111010100001001101101111 "
#527
b101111010100001001101110000 "
#528
b101111010100001001101110001 "
#529
b101111010100001001101110010 "
#530
b101111010100001001101110011 "
#531
b101111010100001001101110100 "
#532
b101111010100001001101110101 "
#533
b101111010100001001101110110 "
#534
b101111010100001001101110111 "
#535
b101111010100001001101111000 "
#536
b101111010100001001101111001 "
#537
b101111010100001001101111010 "
#538
b101111010100001001101111011 "
#539
b101111010100001001101111100 "
#540
b101111010100001001101111101 "
#541
b101111010100001001101111110 "
#542
b101111010100001001101111111 "
#543
b101111010100001001110000000 "
#544
b101111010100001001110000001 "
#545
b101111010100001001110000010 "
#546
b101111010100001001110000011 "
#547
b101111010100001001110000100 "
#548
b101111010100001001110000101 "
#549
b101111010100001001110000110 "
#550
b101111010100001001110000111 "
#551
b101111010100001001110001000 "
#552
b101111010100001001110001001 "
#553
b101111010100001001110001010 "
#554
b101111010100001001110001011 "
#555
b101111010100001001110001100 "
#556
b101111010100001001110001101 "
#557
b101111010100001001110001110 "
#558
b101111010100001001110001111 "
#559
b101111010100001001110010000 "
#560
b101111010100001001110010001 "
#561
b101111010100001001110010010 "
#562
b101111010100001001110010011 "
#563
b101111010100001001110010100 "
#564
b101111010100001001110010101 "
#565
b101111010100001001110010110 "
#566
b101111010100001001110010111 "
#567
b101111010100001001110011000 "
#568
b101111010100001001110011001 "
#569
b101111010100001001110011010 "
#570
b101111010100001001110011011 "
#571
b101111010100001001110011100 "
#572
b101111010100001001110011101 "
#573
b101111010100001001110011110 "
#574
b101111010100001001110011111 "
#575
b101111010100001001110100000 "
#576
b101111010100001001110100001 "
#577
b101111010100001001110100010 "
#578
b101111010100001001110100011 "
#579
b101111010100001001110100100 "
#580
b101111010100001001110100101 "
#581
b101111010100001001110100110 "
#582
b101111010100001001110100111 "
#583
b101111010100001001110101000 "
#584
b101111010100001001110101001 "
#585
b101111010100001001110101010 "
#586
b101111010100001001110101011 "
#587
b101111010100001001110101100 "
#588
b101111010100001001110101101 "
#589
b101111010100001001110101110 "
#590
b101111010100001001110101111 "
#591
b101111010100001001110110000 "
#592
b101111010100001001110110001 "
#593
b101111010100001001110110010 "
#594
b101111010100001001110110011 "
#595
b101111010100001001110110100 "
#596
b101111010100001001110110101 "
#597
b101111010100001001110110110 "
#598
b101111010100001001110110111 "
#599
b101111010100001001110111000 "
#600
b101111010100001001110111001 "
#601
b101111010100001001110111010 "
#602
b101111010100001001110111011 "
#603
b101111010100001001110111100 "
#604
b101111010100001001110111101 "
#605
b101111010100001001110111110 "
#606
b101111010100001001110111111 "
#607
b101111010100001001111000000 "
#608
b101111010100001001111000001 "
#609
b101111010100001001111000010 "
#610
b101111010100001001111000011 "
#611
b101111010100001001111000100 "
#612
b101111010100001001111000101 "
#613
b101111010100001001111000110 "
#614
b101111010100001001111000111 "
#615
b101111010100001001111001000 "
#616
b101111010100001001111001001 "
#617
b101111010100001001111001010 "
#618
b101111010100001001111001011 "
#619
b101111010100001001111001100 "
#620
b101111010100001001111001101 "
#621
b101111010100001001111001110 "
#622
b101111010100001001111001111 "
#623
b101111010100001001111010000 "
#624
b101111010100001001111010001 "
#625
b101111010100001001111010010 "
#626
b101111010100001001111010011 "
#627
b101111010100001001111010100 "
#628
b101111010100001001111010101 "
#629
b101111010100001001111010110 "
#630
b101111010100001001111010111 "
#631
b101111010100001001111011000 "
#632
b101111010100001001111011001 "
#633
b101111010100001001111011010 "
#634
b101111010100001001111011011 "
#635
b101111010100001001111011100 "
#636
b101111010100001001111011101 "
#637
b101111010100001001111011110 "
#638
b101111010100001001111011111 "
#639
b101111010100001001111100000 "
#640
b101111010100001001111100001 "
#641
b101111010100001001111100010 "
#642
b101111010100001001111100011 "
#643
b101111010100001001111100100 "
#644
b101111010100001001111100101 "
#645
b101111010100001001111100110 "
#646
b101111010100001001111100111 "
#647
b101111010100001001111101000 "
#648
b101111010100001001111101001 "
#649
b101111010100001001111101010 "
#650
b101111010100001001111101011 "
#651
b101111010100001001111101100 "
#652
b101111010100001001111101101 "
#653
b101111010100001001111101110 "
#654
b101111010100001001111101111 "
#655
b101111010100001001111110000 "
#656
b101111010100001001111110001 "
#657
b101111010100001001111110010 "
#658
b101111010100001001111110011 "
#659
b101111010100001001111110100 "
#660
b101111010100001001111110101 "
#661
b101111010100001001111110110 "
#662
b101111010100001001111110111 "
#663
b101111010100001001111111000 "
#664
b101111010100001001111111001 "
#665
b101111010100001001111111010 "
#666
b101111010100001001111111011 "
#667
b101111010100001001111111100 "
#668
b101111010100001001111111101 "
#669
b101111010100001001111111110 "
#670
b101111010100001001111111111 "
#671
b101111010100001010000000000 "
#672
b101111010100001010000000001 "
#673
b101111010100001010000000010 "
#674
b101111010100001010000000011 "
#675
b101111010100001010000000100 "
#676
b101111010100001010000000101 "
#677
b101111010100001010000000110 "
#678
b101111010100001010000000111 "
#679
b101111010100001010000001000 "
#680
b101111010100001010000001001 "
#681
b101111010100001010000001010 "
#682
b101111010100001010000001011 "
#683
b101111010100001010000001100 "
#684
b101111010100001010000001101 "
#685
b101111010100001010000001110 "
#686
b101111010100001010000001111 "
#687
b101111010100001010000010000 "
#688
b101111010100001010000010001 "
#689
b101111010100001010000010010 "
#690
b101111010100001010000010011 "
#691
b101111010100001010000010100 "
#692
b101111010100001010000010101 "
#693
b101111010100001010000010110 "
#694
b101111010100001010000010111 "
#695
b101111010100001010000011000 "
#696
b101111010100001010000011001 "
#697
b101111010100001010000011010 "
#698
b101111010100001010000011011 "
#699
b101111010100001010000011100 "
#700
b101111010100001010000011101 "
#701
b101111010100001010000011110 "
#702
b101111010100001010000011111 "
#703
b101111010100001010000100000 "
#704
b101111010100001010000100001 "
#705
b101111010100001010000100010 "
#706
b101111010100001010000100011 "
#707
b101111010100001010000100100 "
#708
b101111010100001010000100101 "
#709
b101111010100001010000100110 "
#710
b101111010100001010000100111 "
#711
b101111010100001010000101000 "
#712
b101111010100001010000101001 "
#713
b101111010100001010000101010 "
#714
b101111010100001010000101011 "
#715
b101111010100001010000101100 "
#716
b101111010100001010000101101 "
#717
b101111010100001010000101110 "
#718
b101111010100001010000101111 "
#719
b101111010100001010000110000 "
#720
b101111010100001010000110001 "
#721
b101111010100001010000110010 "
#722
b101111010100001010000110011 "
#723
b101111010100001010000110100 "
#724
b101111010100001010000110101 "
#725
b101111010100001010000110110 "
#726
b101111010100001010000110111 "
#727
b101111010100001010000111000 "
#728
b101111010100001010000111001 "
#729
b101111010100001010000111010 "
#730
b101111010100001010000111011 "
#731
b101111010100001010000111100 "
#732
b101111010100001010000111101 "
#733
b101111010100001010000111110 "
